{
    "url_server": "https://newsapi.org/",
    "api_key": "86170cd8059f45749d8b69c56c7f91cd",
    "country": [
        {"name":"Israel", "code":"ae"},
        {"name":"Argentina", "code":"ar"},
        {"name":"Austria", "code":"at"},
        {"name":"Australia", "code":"au"},
        {"name":"Belgium", "code":"be"},
        {"name":"Bulgaria", "code":"bg"},
        {"name":"Brazil", "code":"br"},
        {"name":"Canada", "code":"ca"},
        {"name":"Switzerland", "code":"ch"}
      ],
    "category": [
        {"name":"Business", "code":"business"},
        {"name":"Entertainment", "code":"entertainment"},
        {"name":"General", "code":"general"},
        {"name":"Health", "code":"health"},
        {"name":"Science", "code":"science"},
        {"name":"Sports", "code":"sports"},
        {"name":"Technology", "code":"technology"}
    ]
}